\contentsline {section}{\numberline {1}目的}{1}
\contentsline {subsection}{\numberline {1.1}真空蒸着}{1}
\contentsline {subsection}{\numberline {1.2}ラウエ法}{1}
\contentsline {subsection}{\numberline {1.3}ディフラクトメーター}{1}
\contentsline {section}{\numberline {2}銀原子の平均自由行程の直接測定}{2}
\contentsline {subsection}{\numberline {2.1}原理}{2}
\contentsline {subsubsection}{\numberline {2.1.1}平均自由行程}{2}
\contentsline {subsubsection}{\numberline {2.1.2}測定の原理}{2}
\contentsline {subsubsection}{\numberline {2.1.3}真空排気系の概要}{3}
\contentsline {subsubsection}{\numberline {2.1.4}電離真空計}{3}
\contentsline {subsubsection}{\numberline {2.1.5}繰り返し反射干渉計}{3}
\contentsline {subsection}{\numberline {2.2}実験方法}{3}
\contentsline {subsection}{\numberline {2.3}結果}{3}
\contentsline {subsection}{\numberline {2.4}考察}{4}
\contentsline {subsubsection}{\numberline {2.4.1}考察課題1:$x$の値の信頼性}{4}
\contentsline {subsubsection}{\numberline {2.4.2}考察課題2:平均自由行程の導出}{4}
\contentsline {subsubsection}{\numberline {2.4.3}考察課題3:適切な薄膜を形成するための圧力}{4}
\contentsline {section}{\numberline {3}X線回折-ラウエ法実験(LiF単結晶)}{5}
\contentsline {subsection}{\numberline {3.1}原理}{5}
\contentsline {subsubsection}{\numberline {3.1.1}X線}{5}
\contentsline {subsubsection}{\numberline {3.1.2}結晶構造}{5}
\contentsline {subsubsection}{\numberline {3.1.3}結晶によるX線の回折}{5}
\contentsline {subsubsection}{\numberline {3.1.4}ラウエ法}{5}
\contentsline {subsubsection}{\numberline {3.1.5}ステレオ投影}{6}
\contentsline {subsubsection}{\numberline {3.1.6}ステレオ定規}{7}
\contentsline {subsection}{\numberline {3.2}実験方法}{7}
\contentsline {subsection}{\numberline {3.3}結果}{7}
\contentsline {subsection}{\numberline {3.4}考察}{7}
\contentsline {subsubsection}{\numberline {3.4.1}指数付け}{7}
\contentsline {subsubsection}{\numberline {3.4.2}消滅則}{7}
\contentsline {section}{\numberline {4}ディフラクトメーター法(Si粉末結晶及び銀の蒸着膜)}{8}
\contentsline {subsection}{\numberline {4.1}原理}{8}
\contentsline {subsubsection}{\numberline {4.1.1}ディフラクトメーター法}{8}
\contentsline {subsubsection}{\numberline {4.1.2}Si粉末の回折実験}{8}
\contentsline {subsubsection}{\numberline {4.1.3}回折線の指数付け}{8}
\contentsline {subsubsection}{\numberline {4.1.4}構造の決定}{8}
\contentsline {subsubsection}{\numberline {4.1.5}正確な格子定数の決定}{8}
\contentsline {subsubsection}{\numberline {4.1.6}強度の比較}{9}
\contentsline {subsection}{\numberline {4.2}銀の蒸着膜の回折実験}{9}
\contentsline {subsection}{\numberline {4.3}消滅則}{9}
\contentsline {subsubsection}{\numberline {4.3.1}FCC}{10}
\contentsline {subsubsection}{\numberline {4.3.2}ダイヤモンド構造}{10}
\contentsline {subsection}{\numberline {4.4}実験方法}{10}
\contentsline {subsection}{\numberline {4.5}結果}{10}
\contentsline {subsection}{\numberline {4.6}考察}{10}
\contentsline {subsection}{\numberline {4.7}格子定数の測定}{10}
\contentsline {subsubsection}{\numberline {4.7.1}強度の比較について}{10}
